test_run_dir/Waveform_should_pass/Read.vcd
$date
2024-06-23T05:24+0000
$end
$version
0.2
$end
$comment

$end
$timescale 1ns  $end
$scope module Read $end
 $var wire 1 ! io_ReadHS_ready $end
 $var wire 1 " RD $end
 $var wire 8 # io_ReadHS_bits $end
 $var wire 1 $ RXF $end
 $var wire 1 % clock $end
 $var wire 1 & io_ReadHS_valid $end
 $var wire 1 ' io_RD_N $end
 $var wire 1 ( io_RXF_N $end
 $var wire 1 ) io_OE_N $end
 $var wire 8 * io_Data $end
 $var wire 1 + OE $end
 $var wire 1 , reset $end
$upscope $end
$enddefinitions $end
$dumpvars
0%
0"
0)
0&
0'
0+
b00000000 #
0,
b00000000 *
0!
0$
0(
$end
#0
1'
1$
1,
1)
#1
1%
#6
0%
0$
1(
0,
#11
1%
#16
0%
#21
1%
#26
1!
0%
b11101011 #
b11101011 *
1$
0(
#31
1%
1+
0)
#36
0%
b10010000 #
b10010000 *
#41
1%
1"
1&
0'
#46
0%
b00000100 #
b00000100 *
#51
1%
#56
0%
b00100101 #
b00100101 *
#61
1%
#66
0%
b10010111 #
b10010111 *
#71
1%
#76
0%
#81
1%
#86
0%
#91
1%
#96
0%
#101
1%
#106
0%
#111
1%
#116
0%
#121
1%
#126
0%
#131
1%
#136
0%
#141
1%
#146
0%
#151
1%
#156
0%
#161
1%
#166
0!
0%
b00000000 *
