test_run_dir/USBWriteTest_should_pass/Write.vcd
$date
2024-06-26T12:07+0000
$end
$version
0.2
$end
$comment

$end
$timescale 1ns  $end
$scope module Write $end
 $var wire 1 ! io_WriteIO_WR_N $end
 $var wire 1 " io_WriteHS_ready_REG $end
 $var wire 1 # io_WriteIO_TXE_N $end
 $var wire 1 $ io_WriteHS_valid $end
 $var wire 1 % clock $end
 $var wire 8 & io_WriteHS_bits $end
 $var wire 8 ' io_WriteIO_Data $end
 $var wire 1 ( reset $end
 $var wire 1 ) io_WriteHS_ready $end
$upscope $end
$enddefinitions $end
$dumpvars
0%
0"
0)
0#
b00000000 &
0$
0!
b00000000 '
0(
$end
#0
1!
1(
#1
1%
1"
1)
#6
0%
1#
0(
#11
1%
0"
0)
#16
0%
0#
#21
1%
1"
1)
#26
0%
b00001010 &
1#
b00001010 '
1$
#31
1%
0"
0)
#36
0%
#41
1%
#46
0!
0%
0#
#51
1%
1"
1)
#56
0%
b00011110 &
b00011110 '
#61
1%
#66
0%
b00110010 &
b00110010 '
#71
1%
#76
0%
b01000110 &
b01000110 '
#81
1%
#86
0%
b01011010 &
b01011010 '
#91
1%
#96
0%
#101
1%
#106
0%
#111
1%
#116
0%
#121
1%
#126
0%
#131
1%
#136
0%
#141
1%
#146
0%
#151
1%
#156
0%
#161
1%
#166
0%
#171
1%
#176
0%
#181
1%
#186
0%
#191
1%
#196
1!
0%
1#
#201
1%
0"
0)
#206
0%
#211
1%
#216
0%
#221
1%
#226
0%
#231
1%
#236
0%
#241
1%
#246
0%
#251
1%
#256
0%
#261
1%
#266
0%
#271
1%
#276
0%
#281
1%
#286
0%
#291
1%
#296
0%
b00000000 &
0#
0$
