test_run_dir/FakedataTest_should_pass/Fakedata.vcd
$date
2024-06-29T18:03+0000
$end
$version
0.2
$end
$comment

$end
$timescale 1ns  $end
$scope module Fakedata $end
 $var wire 1 ! io_Start $end
 $var wire 1 " io_WriteHS_valid $end
 $var wire 3 # CntValid $end
 $var wire 2 $ StateReg $end
 $var wire 8 % io_WriteHS_bits $end
 $var wire 1 & clock $end
 $var wire 1 ' CntValidEnable $end
 $var wire 1 ( reset $end
 $var wire 1 ) io_WriteHS_ready $end
 $var wire 4 * CntTime $end
 $var wire 1 + CntTimeEnable $end
$upscope $end
$enddefinitions $end
$dumpvars
0"
b0000 *
0)
0&
b000 #
b00 $
0'
b00000000 %
0+
0!
0(
$end
#0
1(
#1
1&
#6
1!
0&
0(
1)
#11
1"
1&
1'
b01 $
#16
0&
#21
b00000001 %
1&
b001 #
#26
0&
#31
b00000010 %
1&
b010 #
#36
0&
#41
b00000011 %
1&
b011 #
#46
0&
#51
b00000100 %
1&
b100 #
#56
0&
#61
b00000101 %
1&
b101 #
#66
0&
#71
b00000000 %
0"
1&
b000 #
0'
b10 $
1+
#76
0&
#81
1&
b0001 *
#86
0&
#91
1&
b0010 *
#96
0&
#101
1&
b0011 *
#106
0&
#111
1&
b0100 *
#116
0&
#121
1&
b0101 *
#126
0&
#131
1&
b0110 *
#136
0&
#141
1&
b0111 *
#146
0&
#151
1&
b1000 *
#156
0&
#161
1&
b1001 *
#166
0&
#171
1&
b1010 *
#176
0&
#181
1"
1&
b0000 *
1'
b01 $
0+
#186
0&
#191
b00000001 %
1&
b001 #
#196
0&
#201
b00000010 %
1&
b010 #
#206
0&
#211
b00000011 %
1&
b011 #
#216
0&
#221
b00000100 %
1&
b100 #
#226
0&
#231
b00000101 %
1&
b101 #
#236
0&
#241
b00000000 %
0"
1&
b000 #
0'
b10 $
1+
#246
0&
#251
1&
b0001 *
#256
0&
#261
1&
b0010 *
#266
0&
#271
1&
b0011 *
#276
0&
#281
1&
b0100 *
#286
0&
#291
1&
b0101 *
#296
0&
#301
1&
b0110 *
#306
0!
0&
0)
